﻿
$(document).on("click", "#change_pw_submit", function(){
  // alert("change_pw_submit"); 
  var old_pw=$('#current_passwd').val();
  var new_pw1=$('#new_passwd1').val();
  var new_pw2=$('#new_passwd2').val();
  
//   if( new_pw1 == new_pw2 ) {
//     $("#user_feedback").html("Checking...");
//   }
//   else {
  if( new_pw1 != new_pw2 ) {
    $("#user_feedback").removeClass("alert alert-info");
    $("#user_feedback").addClass("alert alert-error");
    $("#user_feedback").html("<strong>Problem</strong>: the new passwords do not match.");
    return false;
  }
//   alert(username+" "+passwd);
  var datastring = 'old_pw='+old_pw+'&new_pw='+new_pw1;
  $.ajax({
  type: "post",
  url: "core/ajax_change_pw.php",
  // contentType: "application/x-www-form-urlencoded;charset=utf-8",
  data: datastring,
  dataType: "text",
  success: function(data) {
  var respLen = data.length;
//   alert("["+data+"] "+(typeof data)+" len="+respLen);
  
  var chresp = jQuery.parseJSON(data);
//   alert( "obj.resp == "+chresp.resp );
    
    if( chresp.resp == 3  ) {
      $("#user_feedback").removeClass("alert alert-error alert-info");
      $("#user_feedback").addClass("alert alert-success");
      $("#user_feedback").html("Password change successful.");
      
      $('#current_passwd').attr("disabled", true);
      $('#new_passwd1').attr("disabled", true);
      $('#new_passwd2').attr("disabled", true);
      $('#change_pw_submit').attr("disabled", true);
    }
    else if(chresp.resp == 2 ) {
      $("#user_feedback").removeClass("alert alert-info");
      $("#user_feedback").addClass("alert alert-error");
      $("#user_feedback").html("<strong>Password change failed</strong>: old password incorrect.");
    }
    else {
	$("#user_feedback").removeClass("alert alert-info");
	$("#user_feedback").addClass("alert alert-error");
	$("#user_feedback").html("Password change failed.");
	  
    }
    
  },
  error: function() {
    $("#user_feedback").html("Password change failed.");
  }
});
  
//   $("#adm_users_feedback").html("DONE");
  return false;
}); 





$(document).ready(function(){
  
  
  
  $('.dropdown-toggle').dropdown();
  
  $("#inv_supplies").popover();
  $("#inv_samples").popover();
  
  $("#myaccount_passwd").click(function(){
    $("#contentCol").load(site_root+"/core/account.passwd.php");
  });
  $("#myaccount_details").click(function(){
    $("#contentCol").load(site_root+"/core/account.details.php");
  });
  $("#adm_users").click(function(){
    $("#contentCol").load(site_root+"/core/adm_users.php");
  });
  
  $("#inv_supplies").click(function(){
    $("#contentCol").load(site_root+"/core/inv_supplies.php");
  });
  $("#inv_samples").click(function(){
    $("#contentCol").load(site_root+"/core/inv_samples.php");
  });
  
//   $('#nav li').hover(function(){
//             //show its submenu
//             $('ul', this).slideDown(100);
//         }, 
//         function () {
//             //hide its submenu
//             $('ul', this).slideUp(100);         
//         }
//     );
  
 
  
  
  
  
  
  
  $("#lang_sel_gb").click(function(){
	// alert("gb");
	$.cookies.del( 'xlimslang' );
	$.cookies.set( 'xlimslang', 'gb' );
  });
  
  $("#lang_sel_de").click(function(){
	// alert("de");
	$.cookies.del( 'xlimslang' );
	$.cookies.set( 'xlimslang', 'de' );
  });
  
  $("#lang_sel_no").click(function(){
	// alert("no");
	$.cookies.del( 'xlimslang' );
	$.cookies.set( 'xlimslang', 'no' );
  });
  // $.cookies.set( 'xlimslang', 'de' );
  // var sessid = $.cookies.get( 'xlimslang' );
  // alert("cookie="+sessid);
});
