<?xml version="1.0" encoding="UTF-8" standalone="no"?>
<!-- Created with Inkscape (http://www.inkscape.org/) -->

<svg
   xmlns:dc="http://purl.org/dc/elements/1.1/"
   xmlns:cc="http://creativecommons.org/ns#"
   xmlns:rdf="http://www.w3.org/1999/02/22-rdf-syntax-ns#"
   xmlns:svg="http://www.w3.org/2000/svg"
   xmlns="http://www.w3.org/2000/svg"
   xmlns:sodipodi="http://sodipodi.sourceforge.net/DTD/sodipodi-0.dtd"
   xmlns:inkscape="http://www.inkscape.org/namespaces/inkscape"
   width="220"
   height="60"
   id="svg2"
   version="1.1"
   inkscape:version="0.48.4 r9939"
   sodipodi:docname="colab_inkscape-v2.svg"
   inkscape:export-filename="C:\Users\simon\Dropbox\lims\lims\img\colab_inkscape2.png"
   inkscape:export-xdpi="72.946754"
   inkscape:export-ydpi="72.946754">
  <sodipodi:namedview
     id="base"
     pagecolor="#ffffff"
     bordercolor="#666666"
     borderopacity="1.0"
     inkscape:pageopacity="0.0"
     inkscape:pageshadow="2"
     inkscape:zoom="5.5994018"
     inkscape:cx="120.4646"
     inkscape:cy="38.520423"
     inkscape:document-units="px"
     inkscape:current-layer="layer1"
     showgrid="false"
     inkscape:window-width="1614"
     inkscape:window-height="891"
     inkscape:window-x="21"
     inkscape:window-y="73"
     inkscape:window-maximized="0" />
  <defs
     id="defs4" />
  <metadata
     id="metadata7">
    <rdf:RDF>
      <cc:Work
         rdf:about="">
        <dc:format>image/svg+xml</dc:format>
        <dc:type
           rdf:resource="http://purl.org/dc/dcmitype/StillImage" />
        <dc:title></dc:title>
      </cc:Work>
    </rdf:RDF>
  </metadata>
  <g
     transform="translate(0,-992.36218)"
     id="layer1"
     inkscape:groupmode="layer"
     inkscape:label="Layer 1">
    <path
       sodipodi:type="arc"
       id="path3681"
       sodipodi:cx="35.156952"
       sodipodi:cy="40.627804"
       sodipodi:rx="7.2773862"
       sodipodi:ry="7.2773862"
       d="m 42.434338,40.627804 a 7.2773862,7.2773862 0 1 1 -14.554772,0 7.2773862,7.2773862 0 1 1 14.554772,0 z"
       transform="matrix(1.1854523,0,0,1.1854523,130.88844,974.19986)"
       style="fill:#003f8b;fill-opacity:1" />
    <path
       style="fill:none;stroke:#003f8b;stroke-width:4.75041485;stroke-linecap:butt;stroke-linejoin:miter;stroke-miterlimit:4;stroke-opacity:1;stroke-dasharray:none"
       d="m 54.574008,1023.0402 111.584602,0"
       id="path4820"
       inkscape:connector-curvature="0" />
    <flowRoot
       transform="translate(23.703849,991.89407)"
       style="font-size:40px;font-style:normal;font-variant:normal;font-weight:normal;font-stretch:normal;line-height:125%;letter-spacing:0px;word-spacing:0px;fill:#000000;fill-opacity:1;stroke:none;font-family:KaiTi;-inkscape-font-specification:KaiTi"
       id="flowRoot2985"
       xml:space="preserve"><flowRegion
         id="flowRegion2987"><rect
           style="font-style:normal;font-variant:normal;font-weight:normal;font-stretch:normal;font-family:KaiTi;-inkscape-font-specification:KaiTi"
           y="6.9466071"
           x="38.55793"
           height="43.486389"
           width="147.2739"
           id="rect2989" /></flowRegion><flowPara
         id="flowPara2991">COLAB</flowPara></flowRoot>    <text
       xml:space="preserve"
       style="font-size:40px;font-style:normal;font-weight:normal;line-height:125%;letter-spacing:0px;word-spacing:0px;fill:#000000;fill-opacity:1;stroke:none;font-family:Sans"
       x="60.438107"
       y="1022.3622"
       id="text4854"
       sodipodi:linespacing="125%"><tspan
         sodipodi:role="line"
         id="tspan4856"
         x="60.438107"
         y="1022.3622"> </tspan></text>
    <path
       sodipodi:type="arc"
       id="path3681-8"
       sodipodi:cx="35.156952"
       sodipodi:cy="40.627804"
       sodipodi:rx="7.2773862"
       sodipodi:ry="7.2773862"
       d="m 42.434338,40.627804 a 7.2773862,7.2773862 0 1 1 -14.554772,0 7.2773862,7.2773862 0 1 1 14.554772,0 z"
       transform="matrix(1.1854523,0,0,1.1854523,8.899728,974.19986)"
       style="fill:#003f8b;fill-opacity:1" />
  </g>
</svg>
